…
``` r
long_accessibility_tibble <- apt_b %>%
  pivot_longer(c(no_barrier_free_accessible_units, no_of_accessible_parking_spaces, no_of_elevators),
               names_to = "accessibility",
               values_to = "accessibility_count")
print(long_accessibility_tibble)
```

    ## # A tibble: 10,365 × 36
    ##       id air_conditioning amenities             balconies barrier_free_accessi…¹
    ##    <dbl> <fct>            <fct>                 <fct>     <fct>                 
    ##  1 10359 NONE             Outdoor rec faciliti… YES       YES                   
    ##  2 10359 NONE             Outdoor rec faciliti… YES       YES                   
    ##  3 10359 NONE             Outdoor rec faciliti… YES       YES                   
    ##  4 10360 NONE             Outdoor pool          YES       NO                    
    ##  5 10360 NONE             Outdoor pool          YES       NO                    
    ##  6 10360 NONE             Outdoor pool          YES       NO                    
    ##  7 10361 NONE             <NA>                  YES       NO                    
    ##  8 10361 NONE             <NA>                  YES       NO                    
    ##  9 10361 NONE             <NA>                  YES       NO                    
    ## 10 10362 NONE             <NA>                  YES       YES                   
    ## # ℹ 10,355 more rows
    ## # ℹ abbreviated name: ¹​barrier_free_accessibilty_entr
    ## # ℹ 31 more variables: bike_parking <fct>, exterior_fire_escape <fct>,
    ## #   fire_alarm <fct>, garbage_chutes <fct>, heating_type <fct>, intercom <fct>,
    ## #   laundry_room <fct>, locker_or_storage_room <fct>, parking_type <fct>,
    ## #   pets_allowed <fct>, prop_management_company_name <fct>,
    ## #   property_type <fct>, rsn <dbl>, separate_gas_meters <fct>, …
…
``` r
apt_b %>%
  select(no_of_accessible_parking_spaces, no_barrier_free_accessible_units, no_of_elevators,heating_type, air_conditioning, separate_gas_meters, separate_hydro_meters, separate_water_meters)
```

    ## # A tibble: 3,455 × 8
    ##    no_of_accessible_parkin…¹ no_barrier_free_acce…² no_of_elevators heating_type
    ##                        <dbl>                  <dbl>           <dbl> <fct>       
    ##  1                         8                      2               3 HOT WATER   
    ##  2                        10                      0               3 HOT WATER   
    ##  3                        20                      0               0 HOT WATER   
    ##  4                        42                     42               1 HOT WATER   
    ##  5                        12                      0               0 HOT WATER   
    ##  6                         0                     NA               0 HOT WATER   
    ##  7                         5                     14               0 HOT WATER   
    ##  8                         1                      0               2 HOT WATER   
    ##  9                         1                      0               4 ELECTRIC    
    ## 10                         6                      1               2 HOT WATER   
    ## # ℹ 3,445 more rows
    ## # ℹ abbreviated names: ¹​no_of_accessible_parking_spaces,
    ## #   ²​no_barrier_free_accessible_units
    ## # ℹ 4 more variables: air_conditioning <fct>, separate_gas_meters <fct>,
    ## #   separate_hydro_meters <fct>, separate_water_meters <fct>
…
``` r
tidy_apt_b <- apt_b %>%
  pivot_longer(c(separate_gas_meters, separate_hydro_meters, separate_water_meters),
               names_to = "meters",
               values_to = "meters_binary") %>%
  pivot_longer(c(no_of_accessible_parking_spaces, no_of_elevators, no_barrier_free_accessible_units),
               names_to = "accessibility",
               values_to = "accessibility_count")
print(tidy_apt_b)
```

    ## # A tibble: 31,095 × 35
    ##       id air_conditioning amenities             balconies barrier_free_accessi…¹
    ##    <dbl> <fct>            <fct>                 <fct>     <fct>                 
    ##  1 10359 NONE             Outdoor rec faciliti… YES       YES                   
    ##  2 10359 NONE             Outdoor rec faciliti… YES       YES                   
    ##  3 10359 NONE             Outdoor rec faciliti… YES       YES                   
    ##  4 10359 NONE             Outdoor rec faciliti… YES       YES                   
    ##  5 10359 NONE             Outdoor rec faciliti… YES       YES                   
    ##  6 10359 NONE             Outdoor rec faciliti… YES       YES                   
    ##  7 10359 NONE             Outdoor rec faciliti… YES       YES                   
    ##  8 10359 NONE             Outdoor rec faciliti… YES       YES                   
    ##  9 10359 NONE             Outdoor rec faciliti… YES       YES                   
    ## 10 10360 NONE             Outdoor pool          YES       NO                    
    ## # ℹ 31,085 more rows
    ## # ℹ abbreviated name: ¹​barrier_free_accessibilty_entr
    ## # ℹ 30 more variables: bike_parking <fct>, exterior_fire_escape <fct>,
    ## #   fire_alarm <fct>, garbage_chutes <fct>, heating_type <fct>, intercom <fct>,
    ## #   laundry_room <fct>, locker_or_storage_room <fct>, parking_type <fct>,
    ## #   pets_allowed <fct>, prop_management_company_name <fct>,
    ## #   property_type <fct>, rsn <dbl>, site_address <fct>, …

Here I have changed the dataset from tidy back to untidy.

``` r
tidy_apt_b %>%
  pivot_wider(names_from = meters, values_from = meters_binary) %>%
  pivot_wider(names_from = accessibility, values_from = accessibility_count)
```

    ## # A tibble: 3,455 × 37
    ##       id air_conditioning amenities             balconies barrier_free_accessi…¹
    ##    <dbl> <fct>            <fct>                 <fct>     <fct>                 
    ##  1 10359 NONE             Outdoor rec faciliti… YES       YES                   
    ##  2 10360 NONE             Outdoor pool          YES       NO                    
    ##  3 10361 NONE             <NA>                  YES       NO                    
    ##  4 10362 NONE             <NA>                  YES       YES                   
    ##  5 10363 NONE             <NA>                  NO        NO                    
    ##  6 10364 NONE             <NA>                  NO        NO                    
    ##  7 10365 NONE             <NA>                  NO        YES                   
    ##  8 10366 CENTRAL AIR      Indoor pool , Indoor… YES       NO                    
    ##  9 10367 NONE             <NA>                  YES       YES                   
    ## 10 10368 NONE             Indoor recreation ro… YES       YES                   
    ## # ℹ 3,445 more rows
    ## # ℹ abbreviated name: ¹​barrier_free_accessibilty_entr
    ## # ℹ 32 more variables: bike_parking <fct>, exterior_fire_escape <fct>,
    ## #   fire_alarm <fct>, garbage_chutes <fct>, heating_type <fct>, intercom <fct>,
    ## #   laundry_room <fct>, locker_or_storage_room <fct>, parking_type <fct>,
    ## #   pets_allowed <fct>, prop_management_company_name <fct>,
    ## #   property_type <fct>, rsn <dbl>, site_address <fct>, …
…
