…
``` r
apt_buildings %>%
  select(year_built, fire_alarm, sprinkler_system, emergency_power, no_of_storeys) %>%
  filter(sprinkler_system == "NO")
```

    ## # A tibble: 1,036 × 5
    ##    year_built fire_alarm sprinkler_system emergency_power no_of_storeys
    ##         <dbl> <chr>      <chr>            <chr>                   <dbl>
    ##  1       1927 YES        NO               NO                          4
    ##  2       1943 YES        NO               NO                          4
    ##  3       1952 YES        NO               NO                          4
    ##  4       1959 YES        NO               NO                          4
    ##  5       1945 YES        NO               YES                         4
    ##  6       1958 YES        NO               NO                          6
    ##  7       1958 YES        NO               NO                          3
    ##  8       1955 YES        NO               NO                          3
    ##  9       1947 YES        NO               NO                          3
    ## 10       1952 YES        NO               YES                         3
    ## # ℹ 1,026 more rows

``` r
apt_buildings %>%
  select(year_built, fire_alarm, sprinkler_system, emergency_power, no_of_storeys) %>%
  filter(emergency_power == "NO")
```

    ## # A tibble: 1,928 × 5
    ##    year_built fire_alarm sprinkler_system emergency_power no_of_storeys
    ##         <dbl> <chr>      <chr>            <chr>                   <dbl>
    ##  1       1967 YES        YES              NO                         17
    ##  2       1927 YES        NO               NO                          4
    ##  3       1959 YES        YES              NO                          5
    ##  4       1943 YES        NO               NO                          4
    ##  5       1952 YES        NO               NO                          4
    ##  6       1959 YES        NO               NO                          4
    ##  7       1969 YES        YES              NO                         32
    ##  8       1968 YES        YES              NO                          7
    ##  9       1959 YES        YES              NO                          5
    ## 10       1958 YES        NO               NO                          6
    ## # ℹ 1,918 more rows
…
